[
	{
		"repos": [
			"https://github.com/EclipseFdn/openvsx-publisher-agreement-specs",
			"https://github.com/EclipseFdn/EFDP",
			"https://github.com/EclipseFdn/status.eclipse.org",
			"https://github.com/EclipseFdn/projects-bots-api",
			"https://github.com/EclipseFdn/tangle.ee",
			"https://github.com/EclipseFdn/eclipsecon.org-archive",
			"https://github.com/EclipseFdn/dockerfiles",
			"https://github.com/EclipseFdn/jekyll-theme-eclipsefdn",
			"https://github.com/EclipseFdn/planeteclipse.org",
			"https://github.com/EclipseFdn/jquery-eclipsefdn-api",
			"https://github.com/EclipseFdn/opengenesis.eclipse.org",
			"https://github.com/EclipseFdn/EF-security-policy",
			"https://github.com/EclipseFdn/cerberus",
			"https://github.com/EclipseFdn/jenkins-pipeline-shared",
			"https://github.com/EclipseFdn/eclipse-webhook",
			"https://github.com/EclipseFdn/eclipsecon-data-scraper",
			"https://github.com/EclipseFdn/EFSP",
			"https://github.com/EclipseFdn/locationtech-events",
			"https://github.com/jakartaee/jakartaone.org",
			"https://github.com/jakartaee/jakarta.ee",
			"https://github.com/openhwgroup/openhwgroup.org",
			"https://github.com/openhwgroup/osdforum.org"
		],
		"teamName": "eclipsefdn-staff",
		"members": [
			{
				"name": "oliviergoulet",
				"url": "https://api.eclipse.org/account/profile/oliviergoulet",
				"expiration": ""
			},
			{
				"name": "zacharysabourin",
				"url": "https://api.eclipse.org/account/profile/zacharysabourin",
				"expiration": ""
			},
			{
				"name": "pbuckd40",
				"url": "https://api.eclipse.org/account/profile/pbuckd40",
				"expiration": ""
			},
			{
				"name": "zfazli",
				"url": "https://api.eclipse.org/account/profile/zfazli",
				"expiration": ""
			},
			{
				"name": "jharrisj1m",
				"url": "https://api.eclipse.org/account/profile/jharrisj1m",
				"expiration": ""
			},
			{
				"name": "malowe",
				"url": "https://api.eclipse.org/account/profile/malowe",
				"expiration": ""
			},
			{
				"name": "cguindon",
				"url": "https://api.eclipse.org/account/profile/cguindon",
				"expiration": ""
			},
			{
				"name": "epoirier",
				"url": "https://api.eclipse.org/account/profile/epoirier",
				"expiration": ""
			},
			{
				"name": "webdev",
				"url": "https://api.eclipse.org/account/profile/webdev",
				"expiration": ""
			},
			{
				"name": "webmaster",
				"url": "https://api.eclipse.org/account/profile/webmaster",
				"expiration": ""
			},
			{
				"name": "ajacko",
				"url": "https://api.eclipse.org/account/profile/ajacko",
				"expiration": ""
			},
			{
				"name": "gblondelle",
				"url": "https://api.eclipse.org/account/profile/gblondelle",
				"expiration": ""
			},
			{
				"name": "mbarbero",
				"url": "https://api.eclipse.org/account/profile/mbarbero",
				"expiration": ""
			},
			{
				"name": "wbeaton",
				"url": "https://api.eclipse.org/account/profile/wbeaton",
				"expiration": ""
			},
			{
				"name": "fgurr",
				"url": "https://api.eclipse.org/account/profile/fgurr",
				"expiration": ""
			},
			{
				"name": "fdesbiens",
				"url": "https://api.eclipse.org/account/profile/fdesbiens",
				"expiration": ""
			},
			{
				"name": "pkriefrvi",
				"url": "https://api.eclipse.org/account/profile/pkriefrvi",
				"expiration": ""
			},
			{
				"name": "pwhited3w",
				"url": "https://api.eclipse.org/account/profile/pwhited3w",
				"expiration": ""
			},
			{
				"name": "mjahn0qp",
				"url": "https://api.eclipse.org/account/profile/mjahn0qp",
				"expiration": ""
			},
			{
				"name": "sgiacomoni2as",
				"url": "https://api.eclipse.org/account/profile/sgiacomoni2as",
				"expiration": ""
			},
			{
				"name": "mkokabi",
				"url": "https://api.eclipse.org/account/profile/mkokabi",
				"expiration": ""
			},
			{
				"name": "croundy",
				"url": "https://api.eclipse.org/account/profile/croundy",
				"expiration": ""
			}
		],
		"permission": "TRIAGE",
		"expiration": ""
	}
]
